107.03.13 19:15 B C:\coffeecup software\1and1\WARS\ares\ICS 213.doc --> k6mhe.com /ares ICS 213.doc
107.03.13 19:15 B C:\coffeecup software\1and1\WARS\ares\Radiogram Instructions.pdf --> k6mhe.com /ares Radiogram Instructions.pdf
107.03.13 19:15 B C:\coffeecup software\1and1\WARS\ares\radiogram_form.xls --> k6mhe.com /ares radiogram_form.xls
107.03.13 19:15 B C:\coffeecup software\1and1\WARS\ares\Radiogram_form2X.xls --> k6mhe.com /ares Radiogram_form2X.xls
107.03.13 19:15 B C:\coffeecup software\1and1\WARS\ares\radiogram_formX.xls --> k6mhe.com /ares radiogram_formX.xls
107.03.13 19:15 B C:\coffeecup software\1and1\WARS\ares\RADIOGRM.pdf --> k6mhe.com /ares RADIOGRM.pdf
107.03.14 06:45 B C:\coffeecup software\1and1\WARS\ares\Radiogram_form2QX.xls --> k6mhe.com /ares Radiogram_form2QX.xls
107.03.14 06:45 B C:\coffeecup software\1and1\WARS\ares\radiogram_formQX.xls --> k6mhe.com /ares radiogram_formQX.xls
107.03.14 12:41 B C:\coffeecup software\1and1\WARS\optaids\ICS 213.doc --> k6mhe.com /optaids ICS 213.doc
107.03.14 12:41 B C:\coffeecup software\1and1\WARS\optaids\Radiogram Instructions.pdf --> k6mhe.com /optaids Radiogram Instructions.pdf
107.03.14 12:41 B C:\coffeecup software\1and1\WARS\optaids\radiogram_form.xls --> k6mhe.com /optaids radiogram_form.xls
107.03.14 12:41 B C:\coffeecup software\1and1\WARS\optaids\Radiogram_form2QX.xls --> k6mhe.com /optaids Radiogram_form2QX.xls
107.03.14 12:41 B C:\coffeecup software\1and1\WARS\optaids\Radiogram_form2X.xls --> k6mhe.com /optaids Radiogram_form2X.xls
107.03.14 12:41 B C:\coffeecup software\1and1\WARS\optaids\radiogram_formQX.xls --> k6mhe.com /optaids radiogram_formQX.xls
107.03.14 12:41 B C:\coffeecup software\1and1\WARS\optaids\radiogram_formX.xls --> k6mhe.com /optaids radiogram_formX.xls
107.03.14 12:41 B C:\coffeecup software\1and1\WARS\optaids\RADIOGRM.pdf --> k6mhe.com /optaids RADIOGRM.pdf
