104.11.09 13:11 B C:\Program Files\CoffeeCup Software\WARS\images\arch.jpg --> saber.net /export/home/williame/public_html/images arch.jpg
104.11.09 13:11 B C:\Program Files\CoffeeCup Software\WARS\images\button_buy.bmp --> saber.net /export/home/williame/public_html/images button_buy.bmp
104.11.09 13:11 B C:\Program Files\CoffeeCup Software\WARS\images\button_calendar.bmp --> saber.net /export/home/williame/public_html/images button_calendar.bmp
104.11.09 13:11 B C:\Program Files\CoffeeCup Software\WARS\images\button_constitution.bmp --> saber.net /export/home/williame/public_html/images button_constitution.bmp
104.11.09 13:11 B C:\Program Files\CoffeeCup Software\WARS\images\button_library.jpg --> saber.net /export/home/williame/public_html/images button_library.jpg
104.11.09 13:11 B C:\Program Files\CoffeeCup Software\WARS\images\button_links.jpg --> saber.net /export/home/williame/public_html/images button_links.jpg
104.11.09 13:11 B C:\Program Files\CoffeeCup Software\WARS\images\button_member_directory.bmp --> saber.net /export/home/williame/public_html/images button_member_directory.bmp
104.11.09 13:11 B C:\Program Files\CoffeeCup Software\WARS\images\button_members.bmp --> saber.net /export/home/williame/public_html/images button_members.bmp
104.11.09 13:11 B C:\Program Files\CoffeeCup Software\WARS\images\button_news.jpg --> saber.net /export/home/williame/public_html/images button_news.jpg
104.11.09 13:11 B C:\Program Files\CoffeeCup Software\WARS\images\button_photo.bmp --> saber.net /export/home/williame/public_html/images button_photo.bmp
104.11.09 13:11 B C:\Program Files\CoffeeCup Software\WARS\images\button_return.jpg --> saber.net /export/home/williame/public_html/images button_return.jpg
104.11.09 13:11 B C:\Program Files\CoffeeCup Software\WARS\images\button_roster.bmp --> saber.net /export/home/williame/public_html/images button_roster.bmp
104.11.09 13:11 B C:\Program Files\CoffeeCup Software\WARS\images\button_section.bmp --> saber.net /export/home/williame/public_html/images button_section.bmp
104.11.09 13:11 B C:\Program Files\CoffeeCup Software\WARS\images\button_upcoming.bmp --> saber.net /export/home/williame/public_html/images button_upcoming.bmp
104.11.09 13:11 B C:\Program Files\CoffeeCup Software\WARS\images\newskunk.gif --> saber.net /export/home/williame/public_html/images newskunk.gif
104.11.09 13:11 B C:\Program Files\CoffeeCup Software\WARS\images\old_skunk_car.jpg --> saber.net /export/home/williame/public_html/images old_skunk_car.jpg
104.11.09 13:11 B C:\Program Files\CoffeeCup Software\WARS\images\old_skunk_car_small.jpg --> saber.net /export/home/williame/public_html/images old_skunk_car_small.jpg
104.11.09 13:11 B C:\Program Files\CoffeeCup Software\WARS\images\skunk_mascot3.gif --> saber.net /export/home/williame/public_html/images skunk_mascot3.gif
104.11.09 13:11 B C:\Program Files\CoffeeCup Software\WARS\images\skunk_mascot3.jpg --> saber.net /export/home/williame/public_html/images skunk_mascot3.jpg
104.11.09 13:11 B C:\Program Files\CoffeeCup Software\WARS\images\Thumbs.db --> saber.net /export/home/williame/public_html/images Thumbs.db
104.11.09 13:11 B C:\Program Files\CoffeeCup Software\WARS\images\wars_logo.gif --> saber.net /export/home/williame/public_html/images wars_logo.gif
104.11.09 13:11 B C:\Program Files\CoffeeCup Software\WARS\images\wars_logo2.gif --> saber.net /export/home/williame/public_html/images wars_logo2.gif
104.11.13 17:30 B C:\Program Files\CoffeeCup Software\WARS\images\arch.jpg --> saber.net /export/home/williame/public_html/images arch.jpg
104.11.13 17:30 B C:\Program Files\CoffeeCup Software\WARS\images\area_1.gif --> saber.net /export/home/williame/public_html/images area_1.gif
104.11.13 17:30 B C:\Program Files\CoffeeCup Software\WARS\images\background.gif --> saber.net /export/home/williame/public_html/images background.gif
104.11.13 17:30 B C:\Program Files\CoffeeCup Software\WARS\images\background_1.gif --> saber.net /export/home/williame/public_html/images background_1.gif
104.11.13 17:30 B C:\Program Files\CoffeeCup Software\WARS\images\background_3.jpg --> saber.net /export/home/williame/public_html/images background_3.jpg
104.11.13 17:30 B C:\Program Files\CoffeeCup Software\WARS\images\background_xmas2.jpg --> saber.net /export/home/williame/public_html/images background_xmas2.jpg
104.11.13 17:30 B C:\Program Files\CoffeeCup Software\WARS\images\bulletin_board.gif --> saber.net /export/home/williame/public_html/images bulletin_board.gif
104.11.13 17:30 B C:\Program Files\CoffeeCup Software\WARS\images\bulletin_board.JPG --> saber.net /export/home/williame/public_html/images bulletin_board.JPG
104.11.13 17:30 B C:\Program Files\CoffeeCup Software\WARS\images\button_announce.jpg --> saber.net /export/home/williame/public_html/images button_announce.jpg
104.11.13 17:30 B C:\Program Files\CoffeeCup Software\WARS\images\button_bulletin.jpg --> saber.net /export/home/williame/public_html/images button_bulletin.jpg
104.11.13 17:30 B C:\Program Files\CoffeeCup Software\WARS\images\button_buy.jpg --> saber.net /export/home/williame/public_html/images button_buy.jpg
104.11.13 17:30 B C:\Program Files\CoffeeCup Software\WARS\images\button_calendar.jpg --> saber.net /export/home/williame/public_html/images button_calendar.jpg
104.11.13 17:30 B C:\Program Files\CoffeeCup Software\WARS\images\button_constitution.jpg --> saber.net /export/home/williame/public_html/images button_constitution.jpg
104.11.13 17:30 B C:\Program Files\CoffeeCup Software\WARS\images\button_constrution.jpg --> saber.net /export/home/williame/public_html/images button_constrution.jpg
104.11.13 17:30 B C:\Program Files\CoffeeCup Software\WARS\images\button_download_zip_file.jpg --> saber.net /export/home/williame/public_html/images button_download_zip_file.jpg
104.11.13 17:30 B C:\Program Files\CoffeeCup Software\WARS\images\button_escape.jpg --> saber.net /export/home/williame/public_html/images button_escape.jpg
104.11.13 17:30 B C:\Program Files\CoffeeCup Software\WARS\images\button_home.jpg --> saber.net /export/home/williame/public_html/images button_home.jpg
104.11.13 17:30 B C:\Program Files\CoffeeCup Software\WARS\images\button_library.jpg --> saber.net /export/home/williame/public_html/images button_library.jpg
104.11.13 17:30 B C:\Program Files\CoffeeCup Software\WARS\images\button_links.jpg --> saber.net /export/home/williame/public_html/images button_links.jpg
104.11.13 17:30 B C:\Program Files\CoffeeCup Software\WARS\images\button_member_directory.jpg --> saber.net /export/home/williame/public_html/images button_member_directory.jpg
104.11.13 17:30 B C:\Program Files\CoffeeCup Software\WARS\images\button_members.jpg --> saber.net /export/home/williame/public_html/images button_members.jpg
104.11.13 17:30 B C:\Program Files\CoffeeCup Software\WARS\images\button_news.jpg --> saber.net /export/home/williame/public_html/images button_news.jpg
104.11.13 17:30 B C:\Program Files\CoffeeCup Software\WARS\images\button_past.bmp --> saber.net /export/home/williame/public_html/images button_past.bmp
104.11.13 17:30 B C:\Program Files\CoffeeCup Software\WARS\images\button_past.jpg --> saber.net /export/home/williame/public_html/images button_past.jpg
104.11.13 17:30 B C:\Program Files\CoffeeCup Software\WARS\images\button_photo.jpg --> saber.net /export/home/williame/public_html/images button_photo.jpg
104.11.13 17:30 B C:\Program Files\CoffeeCup Software\WARS\images\button_qtc.jpg --> saber.net /export/home/williame/public_html/images button_qtc.jpg
104.11.13 17:30 B C:\Program Files\CoffeeCup Software\WARS\images\button_return.jpg --> saber.net /export/home/williame/public_html/images button_return.jpg
104.11.13 17:30 B C:\Program Files\CoffeeCup Software\WARS\images\button_roster.jpg --> saber.net /export/home/williame/public_html/images button_roster.jpg
104.11.13 17:30 B C:\Program Files\CoffeeCup Software\WARS\images\button_section.jpg --> saber.net /export/home/williame/public_html/images button_section.jpg
104.11.13 17:30 B C:\Program Files\CoffeeCup Software\WARS\images\button_up.gif --> saber.net /export/home/williame/public_html/images button_up.gif
104.11.13 17:30 B C:\Program Files\CoffeeCup Software\WARS\images\button_upcoming.jpg --> saber.net /export/home/williame/public_html/images button_upcoming.jpg
104.11.13 17:30 B C:\Program Files\CoffeeCup Software\WARS\images\button_view_on_line.jpg --> saber.net /export/home/williame/public_html/images button_view_on_line.jpg
104.11.13 17:30 B C:\Program Files\CoffeeCup Software\WARS\images\chain.gif --> saber.net /export/home/williame/public_html/images chain.gif
104.11.13 17:30 B C:\Program Files\CoffeeCup Software\WARS\images\constitution_1.gif --> saber.net /export/home/williame/public_html/images constitution_1.gif
104.11.13 17:30 B C:\Program Files\CoffeeCup Software\WARS\images\library_book.gif --> saber.net /export/home/williame/public_html/images library_book.gif
104.11.13 17:30 B C:\Program Files\CoffeeCup Software\WARS\images\mail.gif --> saber.net /export/home/williame/public_html/images mail.gif
104.11.13 17:30 B C:\Program Files\CoffeeCup Software\WARS\images\mail_small.gif --> saber.net /export/home/williame/public_html/images mail_small.gif
104.11.13 17:30 B C:\Program Files\CoffeeCup Software\WARS\images\money.gif --> saber.net /export/home/williame/public_html/images money.gif
104.11.13 17:30 B C:\Program Files\CoffeeCup Software\WARS\images\newskunk.gif --> saber.net /export/home/williame/public_html/images newskunk.gif
104.11.13 17:30 B C:\Program Files\CoffeeCup Software\WARS\images\old_skunk_car.jpg --> saber.net /export/home/williame/public_html/images old_skunk_car.jpg
104.11.13 17:30 B C:\Program Files\CoffeeCup Software\WARS\images\old_skunk_car_small.jpg --> saber.net /export/home/williame/public_html/images old_skunk_car_small.jpg
104.11.13 17:30 B C:\Program Files\CoffeeCup Software\WARS\images\skunk_mascot3.gif --> saber.net /export/home/williame/public_html/images skunk_mascot3.gif
104.11.13 17:30 B C:\Program Files\CoffeeCup Software\WARS\images\skunk_mascot3.jpg --> saber.net /export/home/williame/public_html/images skunk_mascot3.jpg
104.11.13 17:30 B C:\Program Files\CoffeeCup Software\WARS\images\Thumbs.db --> saber.net /export/home/williame/public_html/images Thumbs.db
104.11.13 17:30 B C:\Program Files\CoffeeCup Software\WARS\images\wars_logo.gif --> saber.net /export/home/williame/public_html/images wars_logo.gif
104.11.13 17:30 B C:\Program Files\CoffeeCup Software\WARS\images\wars_logo2.gif --> saber.net /export/home/williame/public_html/images wars_logo2.gif
104.11.13 17:30 B C:\Program Files\CoffeeCup Software\WARS\images\warstran.gif --> saber.net /export/home/williame/public_html/images warstran.gif
104.11.13 17:30 B C:\Program Files\CoffeeCup Software\WARS\images\wc-01.gif --> saber.net /export/home/williame/public_html/images wc-01.gif
104.11.13 17:30 B C:\Program Files\CoffeeCup Software\WARS\images\WS_FTP.LOG --> saber.net /export/home/williame/public_html/images WS_FTP.LOG
104.11.13 18:39 B C:\Program Files\CoffeeCup Software\WARS\images\background.gif --> saber.net /export/home/williame/public_html/images background.gif
104.11.13 18:39 B C:\Program Files\CoffeeCup Software\WARS\images\background_1.gif --> saber.net /export/home/williame/public_html/images background_1.gif
104.11.13 18:39 B C:\Program Files\CoffeeCup Software\WARS\images\background_3.jpg --> saber.net /export/home/williame/public_html/images background_3.jpg
104.11.13 18:39 B C:\Program Files\CoffeeCup Software\WARS\images\background_xmas2.jpg --> saber.net /export/home/williame/public_html/images background_xmas2.jpg
104.11.14 20:13 B C:\Program Files\CoffeeCup Software\WARS\images\old_skunk_car.jpg --> saber.net /export/home/williame/public_html/images old_skunk_car.jpg
104.11.16 12:44 B C:\Program Files\CoffeeCup Software\WARS\images\button_bod.jpg --> saber.net /export/home/williame/public_html/images button_bod.jpg
104.11.16 12:44 B C:\Program Files\CoffeeCup Software\WARS\images\rotunda.jpg --> saber.net /export/home/williame/public_html/images rotunda.jpg
104.11.18 07:09 B C:\Program Files\CoffeeCup Software\WARS\images\button_mem_directory.jpg --> saber.net /export/home/williame/public_html/images button_mem_directory.jpg
104.11.20 13:06 B C:\Program Files\CoffeeCup Software\WARS\images\christmas_card.JPG --> saber.net /export/home/williame/public_html/images christmas_card.JPG
104.11.20 13:06 B C:\Program Files\CoffeeCup Software\WARS\images\background_snow_flake.jpg --> saber.net /export/home/williame/public_html/images background_snow_flake.jpg
104.11.26 11:25 B C:\Program Files\CoffeeCup Software\WARS\images\background_snow_flake.jpg --> saber.net /export/home/williame/public_html/images background_snow_flake.jpg
104.11.26 11:25 B C:\Program Files\CoffeeCup Software\WARS\images\christmas_card.JPG --> saber.net /export/home/williame/public_html/images christmas_card.JPG
104.12.01 19:39 B C:\Program Files\CoffeeCup Software\WARS\images\bulletin_board.gif <-- WARS - Saber Net /export/home/williame/public_html/images bulletin_board.gif
104.12.28 20:31 B C:\CoffeeCup Software\WARS\images\about_us.GIF --> saber.net /export/home/williame/public_html/images about_us.GIF
104.12.28 20:31 B C:\CoffeeCup Software\WARS\images\arch.jpg --> saber.net /export/home/williame/public_html/images arch.jpg
104.12.28 20:31 B C:\CoffeeCup Software\WARS\images\archive_logo.gif --> saber.net /export/home/williame/public_html/images archive_logo.gif
104.12.28 20:31 B C:\CoffeeCup Software\WARS\images\area_1.gif --> saber.net /export/home/williame/public_html/images area_1.gif
104.12.28 20:31 B C:\CoffeeCup Software\WARS\images\background.gif --> saber.net /export/home/williame/public_html/images background.gif
104.12.28 20:31 B C:\CoffeeCup Software\WARS\images\background_1.gif --> saber.net /export/home/williame/public_html/images background_1.gif
104.12.28 20:31 B C:\CoffeeCup Software\WARS\images\background_3.jpg --> saber.net /export/home/williame/public_html/images background_3.jpg
104.12.28 20:31 B C:\CoffeeCup Software\WARS\images\background_brik.gif --> saber.net /export/home/williame/public_html/images background_brik.gif
104.12.28 20:31 B C:\CoffeeCup Software\WARS\images\background_snow_flake.jpg --> saber.net /export/home/williame/public_html/images background_snow_flake.jpg
104.12.28 20:31 B C:\CoffeeCup Software\WARS\images\background_xmas2.jpg --> saber.net /export/home/williame/public_html/images background_xmas2.jpg
104.12.28 20:31 B C:\CoffeeCup Software\WARS\images\bulletin_board.gif --> saber.net /export/home/williame/public_html/images bulletin_board.gif
104.12.28 20:31 B C:\CoffeeCup Software\WARS\images\bulletin_board.JPG --> saber.net /export/home/williame/public_html/images bulletin_board.JPG
104.12.28 20:31 B C:\CoffeeCup Software\WARS\images\calendar_events4.gif --> saber.net /export/home/williame/public_html/images calendar_events4.gif
104.12.28 20:31 B C:\CoffeeCup Software\WARS\images\camera_graphic.gif --> saber.net /export/home/williame/public_html/images camera_graphic.gif
104.12.28 20:31 B C:\CoffeeCup Software\WARS\images\camera_graphic.jpg --> saber.net /export/home/williame/public_html/images camera_graphic.jpg
104.12.28 20:31 B C:\CoffeeCup Software\WARS\images\camera_graphic_small.gif --> saber.net /export/home/williame/public_html/images camera_graphic_small.gif
104.12.28 20:31 B C:\CoffeeCup Software\WARS\images\chain.gif --> saber.net /export/home/williame/public_html/images chain.gif
104.12.28 20:31 B C:\CoffeeCup Software\WARS\images\christmas_card.JPG --> saber.net /export/home/williame/public_html/images christmas_card.JPG
104.12.28 20:31 B C:\CoffeeCup Software\WARS\images\constitution_1.gif --> saber.net /export/home/williame/public_html/images constitution_1.gif
104.12.28 20:31 B C:\CoffeeCup Software\WARS\images\constrct.gif --> saber.net /export/home/williame/public_html/images constrct.gif
104.12.28 20:31 B C:\CoffeeCup Software\WARS\images\contact_us2.jpg --> saber.net /export/home/williame/public_html/images contact_us2.jpg
104.12.28 20:31 B C:\CoffeeCup Software\WARS\images\email_graphic2.GIF --> saber.net /export/home/williame/public_html/images email_graphic2.GIF
104.12.28 20:31 B C:\CoffeeCup Software\WARS\images\getacro.gif --> saber.net /export/home/williame/public_html/images getacro.gif
104.12.28 20:31 B C:\CoffeeCup Software\WARS\images\junkyard_small.jpg --> saber.net /export/home/williame/public_html/images junkyard_small.jpg
104.12.28 20:31 B C:\CoffeeCup Software\WARS\images\library_book.gif --> saber.net /export/home/williame/public_html/images library_book.gif
104.12.28 20:31 B C:\CoffeeCup Software\WARS\images\mail.gif --> saber.net /export/home/williame/public_html/images mail.gif
104.12.28 20:31 B C:\CoffeeCup Software\WARS\images\mail.jpg --> saber.net /export/home/williame/public_html/images mail.jpg
104.12.28 20:31 B C:\CoffeeCup Software\WARS\images\mail_small.gif --> saber.net /export/home/williame/public_html/images mail_small.gif
104.12.28 20:31 B C:\CoffeeCup Software\WARS\images\mendo_map.gif --> saber.net /export/home/williame/public_html/images mendo_map.gif
104.12.28 20:31 B C:\CoffeeCup Software\WARS\images\money.gif --> saber.net /export/home/williame/public_html/images money.gif
104.12.28 20:31 B C:\CoffeeCup Software\WARS\images\newskunk.gif --> saber.net /export/home/williame/public_html/images newskunk.gif
104.12.28 20:31 B C:\CoffeeCup Software\WARS\images\rotunda.jpg --> saber.net /export/home/williame/public_html/images rotunda.jpg
104.12.28 20:31 B C:\CoffeeCup Software\WARS\images\skull.jpg --> saber.net /export/home/williame/public_html/images skull.jpg
104.12.28 20:31 B C:\CoffeeCup Software\WARS\images\skunk_mascot3.gif --> saber.net /export/home/williame/public_html/images skunk_mascot3.gif
104.12.28 20:31 B C:\CoffeeCup Software\WARS\images\skunk_mascot3.jpg --> saber.net /export/home/williame/public_html/images skunk_mascot3.jpg
104.12.28 20:31 B C:\CoffeeCup Software\WARS\images\small_train_1.gif --> saber.net /export/home/williame/public_html/images small_train_1.gif
104.12.28 20:31 B C:\CoffeeCup Software\WARS\images\small_train_1.jpg --> saber.net /export/home/williame/public_html/images small_train_1.jpg
104.12.28 20:31 B C:\CoffeeCup Software\WARS\images\snailmail.gif --> saber.net /export/home/williame/public_html/images snailmail.gif
104.12.28 20:31 B C:\CoffeeCup Software\WARS\images\ssurf.gif --> saber.net /export/home/williame/public_html/images ssurf.gif
104.12.28 20:31 B C:\CoffeeCup Software\WARS\images\Thumbs.db --> saber.net /export/home/williame/public_html/images Thumbs.db
104.12.28 20:31 B C:\CoffeeCup Software\WARS\images\wars_logo.gif --> saber.net /export/home/williame/public_html/images wars_logo.gif
104.12.28 20:31 B C:\CoffeeCup Software\WARS\images\wars_logo2.gif --> saber.net /export/home/williame/public_html/images wars_logo2.gif
104.12.28 20:31 B C:\CoffeeCup Software\WARS\images\warstran.gif --> saber.net /export/home/williame/public_html/images warstran.gif
104.12.28 20:31 B C:\CoffeeCup Software\WARS\images\wc-01.gif --> saber.net /export/home/williame/public_html/images wc-01.gif
104.12.28 20:31 B C:\CoffeeCup Software\WARS\images\WS_FTP.LOG --> saber.net /export/home/williame/public_html/images WS_FTP.LOG
104.12.28 20:32 B C:\CoffeeCup Software\WARS\images\about_us.GIF --> saber.net /export/home/williame/public_html/images about_us.GIF
104.12.28 20:36 B C:\CoffeeCup Software\WARS\images\about_us.GIF --> saber.net /export/home/williame/public_html/images about_us.GIF
104.12.29 08:15 B C:\CoffeeCup Software\WARS\images\background.gif --> saber.net /export/home/williame/public_html/photos background.gif
104.12.29 09:27 B C:\CoffeeCup Software\WARS\images\background.gif --> saber.net /export/home/williame/public_html background.gif
104.12.29 09:29 B C:\CoffeeCup Software\WARS\images\background.gif --> saber.net /export/home/williame/public_html/photos background.gif
104.12.29 09:29 B C:\CoffeeCup Software\WARS\images\background.gif --> saber.net /export/home/williame/public_html background.gif
105.01.05 13:48 B C:\CoffeeCup Software\WARS\images\email_graphic2.gif --> saber.net /export/home/williame/public_html/images email_graphic2.gif
105.01.17 18:18 B C:\CoffeeCup Software\WARS\images\harc_van.jpg --> saber.net /export/home/williame/public_html/images harc_van.jpg
105.01.20 06:12 B C:\CoffeeCup Software\WARS\images\joinus.jpg --> saber.net /export/home/williame/public_html/images joinus.jpg
105.01.20 06:17 B C:\CoffeeCup Software\WARS\images\joinus.jpg --> saber.net /export/home/williame/public_html/images joinus.jpg
105.01.25 14:08 B C:\CoffeeCup Software\WARS\images\simonson.jpg --> saber.net /export/home/williame/public_html/images simonson.jpg
105.03.01 19:55 B C:\CoffeeCup Software\WARS\images\member_welcome.jpg --> saber.net /export/home/williame/public_html/images member_welcome.jpg
105.03.03 11:09 B C:\CoffeeCup Software\WARS\images\archive_logo.gif --> saber.net /export/home/williame/public_html/images archive_logo.gif
105.03.03 11:15 B C:\CoffeeCup Software\WARS\images\archivelogo.gif --> saber.net /export/home/williame/public_html/images archivelogo.gif
105.03.23 10:44 B C:\CoffeeCup Software\WARS\images\compac.jpg --> saber.net /export/home/williame/public_html/images compac.jpg
105.04.07 08:44 B C:\coffeecup software\wars\images\speedgage.gif --> saber.net /export/home/williame/public_html/images speedgage.gif
105.04.07 19:02 B C:\coffeecup software\wars\images\hamdband.gif --> saber.net /export/home/williame/public_html/images hamdband.gif
105.04.08 14:12 B C:\coffeecup software\wars\images\pro82.GIF --> saber.net /export/home/williame/public_html/images pro82.GIF
105.04.17 12:21 B C:\coffeecup software\wars\images\convention1.jpg --> saber.net /export/home/williame/public_html/images convention1.jpg
106.03.30 08:20 B C:\coffeecup software\wars\images\about_us.GIF --> ftp.saber.net /images about_us.GIF
106.03.30 08:20 B C:\coffeecup software\wars\images\arch.jpg --> ftp.saber.net /images arch.jpg
106.03.30 08:20 B C:\coffeecup software\wars\images\archivelogo.gif --> ftp.saber.net /images archivelogo.gif
106.03.30 08:20 B C:\coffeecup software\wars\images\area_1.gif --> ftp.saber.net /images area_1.gif
106.03.30 08:20 B C:\coffeecup software\wars\images\background.gif --> ftp.saber.net /images background.gif
106.03.30 08:20 B C:\coffeecup software\wars\images\background_1.gif --> ftp.saber.net /images background_1.gif
106.03.30 08:20 B C:\coffeecup software\wars\images\background_3.jpg --> ftp.saber.net /images background_3.jpg
106.03.30 08:20 B C:\coffeecup software\wars\images\background_brik.gif --> ftp.saber.net /images background_brik.gif
106.03.30 08:20 B C:\coffeecup software\wars\images\background_snow_flake.jpg --> ftp.saber.net /images background_snow_flake.jpg
106.03.30 08:20 B C:\coffeecup software\wars\images\background_xmas2.jpg --> ftp.saber.net /images background_xmas2.jpg
106.03.30 08:20 B C:\coffeecup software\wars\images\bulletin_board.gif --> ftp.saber.net /images bulletin_board.gif
106.03.30 08:20 B C:\coffeecup software\wars\images\bulletin_board.JPG --> ftp.saber.net /images bulletin_board.JPG
106.03.30 08:20 B C:\coffeecup software\wars\images\calendar_events4.gif --> ftp.saber.net /images calendar_events4.gif
106.03.30 08:20 B C:\coffeecup software\wars\images\camera_graphic.gif --> ftp.saber.net /images camera_graphic.gif
106.03.30 08:20 B C:\coffeecup software\wars\images\camera_graphic.jpg --> ftp.saber.net /images camera_graphic.jpg
106.03.30 08:20 B C:\coffeecup software\wars\images\camera_graphic_small.gif --> ftp.saber.net /images camera_graphic_small.gif
106.03.30 08:20 B C:\coffeecup software\wars\images\chain.gif --> ftp.saber.net /images chain.gif
106.03.30 08:20 B C:\coffeecup software\wars\images\christmas_card.JPG --> ftp.saber.net /images christmas_card.JPG
106.03.30 08:20 B C:\coffeecup software\wars\images\compac.jpg --> ftp.saber.net /images compac.jpg
106.03.30 08:20 B C:\coffeecup software\wars\images\constitution_1.gif --> ftp.saber.net /images constitution_1.gif
106.03.30 08:20 B C:\coffeecup software\wars\images\constrct.gif --> ftp.saber.net /images constrct.gif
106.03.30 08:20 B C:\coffeecup software\wars\images\contact_us2.jpg --> ftp.saber.net /images contact_us2.jpg
106.03.30 08:20 B C:\coffeecup software\wars\images\convention1.jpg --> ftp.saber.net /images convention1.jpg
106.03.30 08:20 B C:\coffeecup software\wars\images\email_graphic2.gif --> ftp.saber.net /images email_graphic2.gif
106.03.30 08:22 B C:\coffeecup software\wars\images\factoftheday.html --> ftp.saber.net /images factoftheday.html
106.03.30 08:23 B C:\coffeecup software\wars\images\flashtrafficblu.gif --> ftp.saber.net /images flashtrafficblu.gif
106.03.30 08:23 B C:\coffeecup software\wars\images\getacro.gif --> ftp.saber.net /images getacro.gif
106.03.30 08:23 B C:\coffeecup software\wars\images\hamdband.gif --> ftp.saber.net /images hamdband.gif
106.03.30 08:23 B C:\coffeecup software\wars\images\harc_van.jpg --> ftp.saber.net /images harc_van.jpg
106.03.30 08:23 B C:\coffeecup software\wars\images\joinus.jpg --> ftp.saber.net /images joinus.jpg
106.03.30 08:23 B C:\coffeecup software\wars\images\junkyard_small.jpg --> ftp.saber.net /images junkyard_small.jpg
106.03.30 08:23 B C:\coffeecup software\wars\images\library_book.gif --> ftp.saber.net /images library_book.gif
106.03.30 08:23 B C:\coffeecup software\wars\images\mail.gif --> ftp.saber.net /images mail.gif
106.03.30 08:23 B C:\coffeecup software\wars\images\mail.jpg --> ftp.saber.net /images mail.jpg
106.03.30 08:23 B C:\coffeecup software\wars\images\mail_small.gif --> ftp.saber.net /images mail_small.gif
106.03.30 08:23 B C:\coffeecup software\wars\images\member_welcome.jpg --> ftp.saber.net /images member_welcome.jpg
106.03.30 08:23 B C:\coffeecup software\wars\images\mendo_map.gif --> ftp.saber.net /images mendo_map.gif
106.03.30 08:23 B C:\coffeecup software\wars\images\money.gif --> ftp.saber.net /images money.gif
106.03.30 08:23 B C:\coffeecup software\wars\images\newskunk.gif --> ftp.saber.net /images newskunk.gif
106.03.30 08:23 B C:\coffeecup software\wars\images\pro82.GIF --> ftp.saber.net /images pro82.GIF
106.03.30 08:23 B C:\coffeecup software\wars\images\rotunda.jpg --> ftp.saber.net /images rotunda.jpg
106.03.30 08:23 B C:\coffeecup software\wars\images\simonson.jpg --> ftp.saber.net /images simonson.jpg
106.03.30 08:23 B C:\coffeecup software\wars\images\skull.jpg --> ftp.saber.net /images skull.jpg
106.03.30 08:23 B C:\coffeecup software\wars\images\skunk_mascot3.gif --> ftp.saber.net /images skunk_mascot3.gif
106.03.30 08:23 B C:\coffeecup software\wars\images\skunk_mascot3.jpg --> ftp.saber.net /images skunk_mascot3.jpg
106.03.30 08:23 B C:\coffeecup software\wars\images\small_train_1.gif --> ftp.saber.net /images small_train_1.gif
106.03.30 08:23 B C:\coffeecup software\wars\images\small_train_1.jpg --> ftp.saber.net /images small_train_1.jpg
106.03.30 08:23 B C:\coffeecup software\wars\images\snailmail.gif --> ftp.saber.net /images snailmail.gif
106.03.30 08:23 B C:\coffeecup software\wars\images\speedgage.gif --> ftp.saber.net /images speedgage.gif
106.03.30 08:23 B C:\coffeecup software\wars\images\speedgage.JPG --> ftp.saber.net /images speedgage.JPG
106.03.30 08:23 B C:\coffeecup software\wars\images\ssurf.gif --> ftp.saber.net /images ssurf.gif
106.03.30 08:23 B C:\coffeecup software\wars\images\Thumbs.db --> ftp.saber.net /images Thumbs.db
106.03.30 08:23 B C:\coffeecup software\wars\images\wars_logo.gif --> ftp.saber.net /images wars_logo.gif
106.03.30 08:23 B C:\coffeecup software\wars\images\wars_logo2.gif --> ftp.saber.net /images wars_logo2.gif
106.03.30 08:23 B C:\coffeecup software\wars\images\warstran.gif --> ftp.saber.net /images warstran.gif
106.03.30 08:23 B C:\coffeecup software\wars\images\wc-01.gif --> ftp.saber.net /images wc-01.gif
106.03.30 08:23 B C:\coffeecup software\wars\images\Welcome sign.jpg --> ftp.saber.net /images Welcome sign.jpg
106.03.30 08:23 B C:\coffeecup software\wars\images\Welcome1.jpg --> ftp.saber.net /images Welcome1.jpg
106.03.30 08:23 B C:\coffeecup software\wars\images\welcome_sign.jpg --> ftp.saber.net /images welcome_sign.jpg
106.03.30 08:23 B C:\coffeecup software\wars\images\WS_FTP.LOG --> ftp.saber.net /images WS_FTP.LOG
106.04.01 12:26 B C:\coffeecup software\wars\images\about_us.GIF --> k6mhe.com /images about_us.GIF
106.04.01 12:26 B C:\coffeecup software\wars\images\arch.jpg --> k6mhe.com /images arch.jpg
106.04.01 12:26 B C:\coffeecup software\wars\images\archivelogo.gif --> k6mhe.com /images archivelogo.gif
106.04.01 12:26 B C:\coffeecup software\wars\images\area_1.gif --> k6mhe.com /images area_1.gif
106.04.01 12:26 B C:\coffeecup software\wars\images\background.gif --> k6mhe.com /images background.gif
106.04.01 12:26 B C:\coffeecup software\wars\images\background_1.gif --> k6mhe.com /images background_1.gif
106.04.01 12:26 B C:\coffeecup software\wars\images\background_3.jpg --> k6mhe.com /images background_3.jpg
106.04.01 12:26 B C:\coffeecup software\wars\images\background_brik.gif --> k6mhe.com /images background_brik.gif
106.04.01 12:26 B C:\coffeecup software\wars\images\background_snow_flake.jpg --> k6mhe.com /images background_snow_flake.jpg
106.04.01 12:26 B C:\coffeecup software\wars\images\background_xmas2.jpg --> k6mhe.com /images background_xmas2.jpg
106.04.01 12:26 B C:\coffeecup software\wars\images\bulletin_board.gif --> k6mhe.com /images bulletin_board.gif
106.04.01 12:26 B C:\coffeecup software\wars\images\bulletin_board.JPG --> k6mhe.com /images bulletin_board.JPG
106.04.01 12:26 B C:\coffeecup software\wars\images\calendar_events4.gif --> k6mhe.com /images calendar_events4.gif
106.04.01 12:26 B C:\coffeecup software\wars\images\camera_graphic.gif --> k6mhe.com /images camera_graphic.gif
106.04.01 12:26 B C:\coffeecup software\wars\images\camera_graphic.jpg --> k6mhe.com /images camera_graphic.jpg
106.04.01 12:26 B C:\coffeecup software\wars\images\camera_graphic_small.gif --> k6mhe.com /images camera_graphic_small.gif
106.04.01 12:26 B C:\coffeecup software\wars\images\chain.gif --> k6mhe.com /images chain.gif
106.04.01 12:26 B C:\coffeecup software\wars\images\christmas_card.JPG --> k6mhe.com /images christmas_card.JPG
106.04.01 12:26 B C:\coffeecup software\wars\images\compac.jpg --> k6mhe.com /images compac.jpg
106.04.01 12:26 B C:\coffeecup software\wars\images\constitution_1.gif --> k6mhe.com /images constitution_1.gif
106.04.01 12:26 B C:\coffeecup software\wars\images\constrct.gif --> k6mhe.com /images constrct.gif
106.04.01 12:26 B C:\coffeecup software\wars\images\contact_us2.jpg --> k6mhe.com /images contact_us2.jpg
106.04.01 12:26 B C:\coffeecup software\wars\images\convention1.jpg --> k6mhe.com /images convention1.jpg
106.04.01 12:26 B C:\coffeecup software\wars\images\email_graphic2.gif --> k6mhe.com /images email_graphic2.gif
106.04.01 12:26 B C:\coffeecup software\wars\images\factoftheday.html --> k6mhe.com /images factoftheday.html
106.04.01 12:26 B C:\coffeecup software\wars\images\flashtrafficblu.gif --> k6mhe.com /images flashtrafficblu.gif
106.04.01 12:26 B C:\coffeecup software\wars\images\getacro.gif --> k6mhe.com /images getacro.gif
106.04.01 12:26 B C:\coffeecup software\wars\images\hamdband.gif --> k6mhe.com /images hamdband.gif
106.04.01 12:26 B C:\coffeecup software\wars\images\harc_van.jpg --> k6mhe.com /images harc_van.jpg
106.04.01 12:26 B C:\coffeecup software\wars\images\joinus.jpg --> k6mhe.com /images joinus.jpg
106.04.01 12:26 B C:\coffeecup software\wars\images\junkyard_small.jpg --> k6mhe.com /images junkyard_small.jpg
106.04.01 12:26 B C:\coffeecup software\wars\images\library_book.gif --> k6mhe.com /images library_book.gif
106.04.01 12:26 B C:\coffeecup software\wars\images\mail.gif --> k6mhe.com /images mail.gif
106.04.01 12:26 B C:\coffeecup software\wars\images\mail.jpg --> k6mhe.com /images mail.jpg
106.04.01 12:26 B C:\coffeecup software\wars\images\mail_small.gif --> k6mhe.com /images mail_small.gif
106.04.01 12:26 B C:\coffeecup software\wars\images\member_welcome.jpg --> k6mhe.com /images member_welcome.jpg
106.04.01 12:26 B C:\coffeecup software\wars\images\mendo_map.gif --> k6mhe.com /images mendo_map.gif
106.04.01 12:26 B C:\coffeecup software\wars\images\money.gif --> k6mhe.com /images money.gif
106.04.01 12:26 B C:\coffeecup software\wars\images\newskunk.gif --> k6mhe.com /images newskunk.gif
106.04.01 12:26 B C:\coffeecup software\wars\images\pro82.GIF --> k6mhe.com /images pro82.GIF
106.04.01 12:26 B C:\coffeecup software\wars\images\rotunda.jpg --> k6mhe.com /images rotunda.jpg
106.04.01 12:26 B C:\coffeecup software\wars\images\simonson.jpg --> k6mhe.com /images simonson.jpg
106.04.01 12:26 B C:\coffeecup software\wars\images\skull.jpg --> k6mhe.com /images skull.jpg
106.04.01 12:26 B C:\coffeecup software\wars\images\skunk_mascot3.gif --> k6mhe.com /images skunk_mascot3.gif
106.04.01 12:26 B C:\coffeecup software\wars\images\skunk_mascot3.jpg --> k6mhe.com /images skunk_mascot3.jpg
106.04.01 12:26 B C:\coffeecup software\wars\images\small_train_1.gif --> k6mhe.com /images small_train_1.gif
106.04.01 12:26 B C:\coffeecup software\wars\images\small_train_1.jpg --> k6mhe.com /images small_train_1.jpg
106.04.01 12:26 B C:\coffeecup software\wars\images\snailmail.gif --> k6mhe.com /images snailmail.gif
106.04.01 12:27 B C:\coffeecup software\wars\images\speedgage.gif --> k6mhe.com /images speedgage.gif
106.04.01 12:27 B C:\coffeecup software\wars\images\speedgage.JPG --> k6mhe.com /images speedgage.JPG
106.04.01 12:27 B C:\coffeecup software\wars\images\ssurf.gif --> k6mhe.com /images ssurf.gif
106.04.01 12:27 B C:\coffeecup software\wars\images\Thumbs.db --> k6mhe.com /images Thumbs.db
106.04.01 12:27 B C:\coffeecup software\wars\images\wars_logo.gif --> k6mhe.com /images wars_logo.gif
106.04.01 12:27 B C:\coffeecup software\wars\images\wars_logo2.gif --> k6mhe.com /images wars_logo2.gif
106.04.01 12:27 B C:\coffeecup software\wars\images\warstran.gif --> k6mhe.com /images warstran.gif
106.04.01 12:27 B C:\coffeecup software\wars\images\wc-01.gif --> k6mhe.com /images wc-01.gif
106.04.01 12:27 B C:\coffeecup software\wars\images\Welcome sign.jpg --> k6mhe.com /images Welcome sign.jpg
106.04.01 12:27 B C:\coffeecup software\wars\images\Welcome1.jpg --> k6mhe.com /images Welcome1.jpg
106.04.01 12:27 B C:\coffeecup software\wars\images\welcome_sign.jpg --> k6mhe.com /images welcome_sign.jpg
